Chapter 3 Data wrangling using tidyverse | Watershed Analysis
…
3.9 Arrange

Arrange sorts by a column in your dataset.

Sort the rbi data by the RBI column in ascending and then descending order

arrange(rbi, RBI)

## # A tibble: 49 × 26
##    site_no    RBI RBIrank STANAME        DRAIN…¹ HUC02 LAT_G…² LNG_G…³ STATE CLASS AGGEC…⁴ PPTAV…⁵ PPTAV…⁶ T_AVG…⁷
##      <dbl>  <dbl>   <dbl> <chr>            <dbl> <dbl>   <dbl>   <dbl> <chr> <chr> <chr>     <dbl>   <dbl>   <dbl>
##  1 1305500 0.0464      18 SWAN RIVER AT…    21.3     2    40.8   -73.0 NY    Non-… SECstP…   125.    125.    10.9 
##  2 1013500 0.0584      35 Fish River ne…  2253.      1    47.2   -68.6 ME    Ref   NorthE…    97.4    93.5    3   
##  3 1306460 0.0587      37 CONNETQUOT BK…    55.7     2    40.8   -73.2 NY    Non-… SECstP…   122.    123.    11.0 
##  4 1030500 0.114      147 Mattawamkeag …  3676.      1    45.5   -68.3 ME    Ref   NorthE…   108.    113.     4.82
##  5 1029200 0.132      183 Seboeis River…   445.      1    46.1   -68.6 ME    Ref   NorthE…   102.    103.     3.61
##  6 1117468 0.172      244 BEAVER RIVER …    25.3     1    41.5   -71.6 RI    Ref   NorthE…   128.    129.     9.73
##  7 1022500 0.198      286 Narraguagus R…   574.      1    44.6   -67.9 ME    Ref   NorthE…   120.    130.     5.95
##  8 1021480 0.208      300 Old Stream ne…    76.7     1    44.9   -67.7 ME    Ref   NorthE…   115.    117.     5.71
##  9 1162500 0.213      311 PRIEST BROOK …    49.7     1    42.7   -72.1 MA    Ref   NorthE…   121.    118.     6.68
## 10 1117370 0.230      338 QUEEN R AT LI…    50.5     1    41.5   -71.6 RI    Ref   NorthE…   127.    129.     9.78
## # … with 39 more rows, 12 more variables: T_AVG_SITE <dbl>, T_MAX_BASIN <dbl>, T_MAXSTD_BASIN <dbl>,
## #   T_MAX_SITE <dbl>, T_MIN_BASIN <dbl>, T_MINSTD_BASIN <dbl>, T_MIN_SITE <dbl>, PET <dbl>,
## #   SNOW_PCT_PRECIP <dbl>, PRECIP_SEAS_IND <dbl>, FLOWYRS_1990_2009 <dbl>, wy00_09 <dbl>, and abbreviated
## #   variable names ¹​DRAIN_SQKM, ²​LAT_GAGE, ³​LNG_GAGE, ⁴​AGGECOREGION, ⁵​PPTAVG_BASIN, ⁶​PPTAVG_SITE, ⁷​T_AVG_BASIN

arrange(rbi, desc(RBI))

## # A tibble: 49 × 26
##    site_no   RBI RBIrank STANAME DRAIN…¹ HUC02 LAT_G…² LNG_G…³ STATE CLASS AGGEC…⁴ PPTAV…⁵ PPTAV…⁶ T_AVG…⁷ T_AVG…⁸
##      <dbl> <dbl>   <dbl> <chr>     <dbl> <dbl>   <dbl>   <dbl> <chr> <chr> <chr>     <dbl>   <dbl>   <dbl>   <dbl>
##  1 1311500 0.856    1017 VALLEY…    18.1     2    40.7   -73.7 NY    Non-… SECstP…    124.    124.   11.8     11.8
##  2 1054200 0.492     805 Wild R…   181       1    44.4   -71.0 ME    Ref   NorthE…    136.    106.    4.81     5.4
##  3 1187300 0.487     800 HUBBAR…    53.9     1    42.0   -72.9 MA    Ref   NorthE…    135.    131.    7.14     7.6
##  4 1105600 0.484     797 OLD SW…    12.7     1    42.2   -70.9 MA    Non-… NorthE…    119.    120.    9.61     9.6
##  5 1055000 0.450     762 Swift …   251.      1    44.6   -70.6 ME    Ref   NorthE…    135.    119.    3.81     4.9
##  6 1195100 0.430     744 INDIAN…    14.8     1    41.3   -72.5 CT    Ref   NorthE…    128.    127.    9.95     9.9
##  7 1181000 0.420     732 WEST B…   244.      1    42.2   -72.9 MA    Ref   NorthE…    144.    129.    7.33     7.5
##  8 1350000 0.414     721 SCHOHA…   612.      2    42.3   -74.4 NY    Ref   NorthE…    119.    101.    5.66     6  
##  9 1121000 0.404     710 MOUNT …    70.3     1    41.8   -72.2 CT    Ref   NorthE…    128.    130.    8.52     8.8
## 10 1169000 0.395     688 NORTH …   231.      1    42.6   -72.7 MA    Ref   NorthE…    131.    125.    6.6      7.3
## # … with 39 more rows, 11 more variables: T_MAX_BASIN <dbl>, T_MAXSTD_BASIN <dbl>, T_MAX_SITE <dbl>,
## #   T_MIN_BASIN <dbl>, T_MINSTD_BASIN <dbl>, T_MIN_SITE <dbl>, PET <dbl>, SNOW_PCT_PRECIP <dbl>,
## #   PRECIP_SEAS_IND <dbl>, FLOWYRS_1990_2009 <dbl>, wy00_09 <dbl>, and abbreviated variable names ¹​DRAIN_SQKM,
## #   ²​LAT_GAGE, ³​LNG_GAGE, ⁴​AGGECOREGION, ⁵​PPTAVG_BASIN, ⁶​PPTAVG_SITE, ⁷​T_AVG_BASIN, ⁸​T_AVG_SITE

3.10 Select

There are too many columns! You will often want to do this when you are manipulating the structure of your data and need to trim it down to only include what you will use.

Select Site name, state, and RBI from the rbi data

Note they come back in the order you put them in in the function, not the order they were in in the original data.

You can do a lot more with select, especially when you need to select a bunch of columns but don’t want to type them all out. But we don’t need to cover all that today. For a taste though, if you want to select a group of columns you can specify the first and last with a colon in between (first:last) and it’ll return all of them. Select the rbi columns from site_no to DRAIN_SQKM.

select(rbi, STANAME, STATE, RBI)

## # A tibble: 49 × 3
##    STANAME                                      STATE    RBI
##    <chr>                                        <chr>  <dbl>
##  1 Fish River near Fort Kent, Maine             ME    0.0584
##  2 Old Stream near Wesley, Maine                ME    0.208 
##  3 Narraguagus River at Cherryfield, Maine      ME    0.198 
##  4 Seboeis River near Shin Pond, Maine          ME    0.132 
##  5 Mattawamkeag River near Mattawamkeag, Maine  ME    0.114 
##  6 Piscataquis River at Blanchard, Maine        ME    0.297 
##  7 Piscataquis River near Dover-Foxcroft, Maine ME    0.320 
##  8 Ducktrap River near Lincolnville, Maine      ME    0.318 
##  9 Spencer Stream near Grand Falls, Maine       ME    0.242 
## 10 Carrabassett River near North Anson, Maine   ME    0.344 
## # … with 39 more rows

select(rbi, site_no:DRAIN_SQKM)

## # A tibble: 49 × 5
##    site_no    RBI RBIrank STANAME                                      DRAIN_SQKM
##      <dbl>  <dbl>   <dbl> <chr>                                             <dbl>
##  1 1013500 0.0584      35 Fish River near Fort Kent, Maine                 2253. 
##  2 1021480 0.208      300 Old Stream near Wesley, Maine                      76.7
##  3 1022500 0.198      286 Narraguagus River at Cherryfield, Maine           574. 
##  4 1029200 0.132      183 Seboeis River near Shin Pond, Maine               445. 
##  5 1030500 0.114      147 Mattawamkeag River near Mattawamkeag, Maine      3676. 
##  6 1031300 0.297      489 Piscataquis River at Blanchard, Maine             304. 
##  7 1031500 0.320      545 Piscataquis River near Dover-Foxcroft, Maine      769  
##  8 1037380 0.318      537 Ducktrap River near Lincolnville, Maine            39  
##  9 1044550 0.242      360 Spencer Stream near Grand Falls, Maine            500. 
## 10 1047000 0.344      608 Carrabassett River near North Anson, Maine        909. 
## # … with 39 more rows

3.11 Mutate

Use mutate to add new columns based on additional ones. Common uses are to create a column of data in different units, or to calculate something based on two columns. You can also use it to just update a column, by naming the new column the same as the original one (but be careful because you’ll lose the original one!). I commonly use this when I am changing the datatype of a column, say from a character to a factor or a string to a date.

Create a new column in rbi called T_RANGE by subtracting T_MIN_SITE from T_MAX_SITE

mutate(rbi, T_RANGE = T_MAX_SITE - T_MIN_SITE)

## # A tibble: 49 × 27
##    site_no    RBI RBIrank STANAME        DRAIN…¹ HUC02 LAT_G…² LNG_G…³ STATE CLASS AGGEC…⁴ PPTAV…⁵ PPTAV…⁶ T_AVG…⁷
##      <dbl>  <dbl>   <dbl> <chr>            <dbl> <dbl>   <dbl>   <dbl> <chr> <chr> <chr>     <dbl>   <dbl>   <dbl>
##  1 1013500 0.0584      35 Fish River ne…  2253.      1    47.2   -68.6 ME    Ref   NorthE…    97.4    93.5    3   
##  2 1021480 0.208      300 Old Stream ne…    76.7     1    44.9   -67.7 ME    Ref   NorthE…   115.    117.     5.71
##  3 1022500 0.198      286 Narraguagus R…   574.      1    44.6   -67.9 ME    Ref   NorthE…   120.    130.     5.95
##  4 1029200 0.132      183 Seboeis River…   445.      1    46.1   -68.6 ME    Ref   NorthE…   102.    103.     3.61
##  5 1030500 0.114      147 Mattawamkeag …  3676.      1    45.5   -68.3 ME    Ref   NorthE…   108.    113.     4.82
##  6 1031300 0.297      489 Piscataquis R…   304.      1    45.3   -69.6 ME    Ref   NorthE…   120.    121.     3.6 
##  7 1031500 0.320      545 Piscataquis R…   769       1    45.2   -69.3 ME    Ref   NorthE…   118     114.     4.14
##  8 1037380 0.318      537 Ducktrap Rive…    39       1    44.3   -69.1 ME    Ref   NorthE…   122.    123.     7.22
##  9 1044550 0.242      360 Spencer Strea…   500.      1    45.3   -70.2 ME    Ref   NorthE…   110.    102.     2.54
## 10 1047000 0.344      608 Carrabassett …   909.      1    44.9   -70.0 ME    Ref   NorthE…   119.    106.     3.99
## # … with 39 more rows, 13 more variables: T_AVG_SITE <dbl>, T_MAX_BASIN <dbl>, T_MAXSTD_BASIN <dbl>,
## #   T_MAX_SITE <dbl>, T_MIN_BASIN <dbl>, T_MINSTD_BASIN <dbl>, T_MIN_SITE <dbl>, PET <dbl>,
## #   SNOW_PCT_PRECIP <dbl>, PRECIP_SEAS_IND <dbl>, FLOWYRS_1990_2009 <dbl>, wy00_09 <dbl>, T_RANGE <dbl>, and
## #   abbreviated variable names ¹​DRAIN_SQKM, ²​LAT_GAGE, ³​LNG_GAGE, ⁴​AGGECOREGION, ⁵​PPTAVG_BASIN, ⁶​PPTAVG_SITE,
## #   ⁷​T_AVG_BASIN

When downloading data from the USGS through R, you have to enter the gage ID as a character, even though they are all made up of numbers. So to practice doing this, update the site_no column to be a character datatype

mutate(rbi, site_no = as.character(site_no))

## # A tibble: 49 × 26
##    site_no    RBI RBIrank STANAME        DRAIN…¹ HUC02 LAT_G…² LNG_G…³ STATE CLASS AGGEC…⁴ PPTAV…⁵ PPTAV…⁶ T_AVG…⁷
##    <chr>    <dbl>   <dbl> <chr>            <dbl> <dbl>   <dbl>   <dbl> <chr> <chr> <chr>     <dbl>   <dbl>   <dbl>
##  1 1013500 0.0584      35 Fish River ne…  2253.      1    47.2   -68.6 ME    Ref   NorthE…    97.4    93.5    3   
##  2 1021480 0.208      300 Old Stream ne…    76.7     1    44.9   -67.7 ME    Ref   NorthE…   115.    117.     5.71
##  3 1022500 0.198      286 Narraguagus R…   574.      1    44.6   -67.9 ME    Ref   NorthE…   120.    130.     5.95
##  4 1029200 0.132      183 Seboeis River…   445.      1    46.1   -68.6 ME    Ref   NorthE…   102.    103.     3.61
##  5 1030500 0.114      147 Mattawamkeag …  3676.      1    45.5   -68.3 ME    Ref   NorthE…   108.    113.     4.82
##  6 1031300 0.297      489 Piscataquis R…   304.      1    45.3   -69.6 ME    Ref   NorthE…   120.    121.     3.6 
##  7 1031500 0.320      545 Piscataquis R…   769       1    45.2   -69.3 ME    Ref   NorthE…   118     114.     4.14
##  8 1037380 0.318      537 Ducktrap Rive…    39       1    44.3   -69.1 ME    Ref   NorthE…   122.    123.     7.22
##  9 1044550 0.242      360 Spencer Strea…   500.      1    45.3   -70.2 ME    Ref   NorthE…   110.    102.     2.54
## 10 1047000 0.344      608 Carrabassett …   909.      1    44.9   -70.0 ME    Ref   NorthE…   119.    106.     3.99
## # … with 39 more rows, 12 more variables: T_AVG_SITE <dbl>, T_MAX_BASIN <dbl>, T_MAXSTD_BASIN <dbl>,
## #   T_MAX_SITE <dbl>, T_MIN_BASIN <dbl>, T_MINSTD_BASIN <dbl>, T_MIN_SITE <dbl>, PET <dbl>,
## #   SNOW_PCT_PRECIP <dbl>, PRECIP_SEAS_IND <dbl>, FLOWYRS_1990_2009 <dbl>, wy00_09 <dbl>, and abbreviated
## #   variable names ¹​DRAIN_SQKM, ²​LAT_GAGE, ³​LNG_GAGE, ⁴​AGGECOREGION, ⁵​PPTAVG_BASIN, ⁶​PPTAVG_SITE, ⁷​T_AVG_BASIN
…
