Chapter 19 Data wrangling using tidyverse | Hydrographs & Rating Curves
…
And one that keeps flows less than 100 cfs in the “flow” dataframe.

filter(flow, cfs < 100)

## # A tibble: 4,169 × 8
##    StationID   cfs surrogate datetime             year quarter
##    <chr>     <dbl> <chr>     <dttm>              <dbl>   <dbl>
##  1 PINE       11.6 N         2010-01-01 00:00:00  2010       1
##  2 PINE       11.6 N         2010-01-01 01:00:00  2010       1
##  3 PINE       11.2 N         2010-01-01 02:00:00  2010       1
##  4 PINE       11.2 N         2010-01-01 03:00:00  2010       1
##  5 PINE       11.2 N         2010-01-01 04:00:00  2010       1
##  6 PINE       11.2 N         2010-01-01 05:00:00  2010       1
##  7 PINE       11.2 N         2010-01-01 06:00:00  2010       1
##  8 PINE       11.2 N         2010-01-01 07:00:00  2010       1
##  9 PINE       10.9 N         2010-01-01 08:00:00  2010       1
## 10 PINE       10.9 N         2010-01-01 09:00:00  2010       1
## # ℹ 4,159 more rows
## # ℹ 2 more variables: month <dbl>, day <dbl>
…
Challenge: Filter for flow less than 100 cfs just for the NFDR gauge in “flow”.

19.10 Arrange

Arrange sorts by a column in your dataset.

Sort the rbi data by the RBI column in ascending and then descending order

arrange(rbi, RBI)

## # A tibble: 1,144 × 26
##     site_no    RBI RBIrank STANAME        DRAIN_SQKM HUC02 LAT_GAGE
##       <dbl>  <dbl>   <dbl> <chr>               <dbl> <chr>    <dbl>
##  1  6408700 0.0108       1 RHOADS FORK N…       20.8 10U       44.1
##  2  6430850 0.0192       2 LITTLE SPEARF…       71.8 10U       44.3
##  3 10244950 0.0230       3 STEPTOE C NR …       28.2 16        39.2
##  4  2267000 0.0286       4 CATFISH CREEK…      169.  3         28.0
##  5  6775500 0.0300       5 MIDDLE LOUP R…     5460.  10L       41.8
##  6  6430532 0.0303       6 CROW CREEK NE…      106.  10U       44.6
##  7 14158500 0.0306       7 MCKENZIE RIVE…      237.  17        44.4
##  8  6037500 0.0338       8 Madison River…     1126.  10U       44.7
##  9 10109001 0.0382       9 COM F LOGAN R…      556.  16        41.7
## 10 10243700 0.0391      10 CLEVE C NR EL…       83.5 16        39.2
## # ℹ 1,134 more rows
## # ℹ 19 more variables: LNG_GAGE <dbl>, STATE <chr>, CLASS <chr>,
## #   AGGECOREGION <chr>, PPTAVG_BASIN <dbl>, PPTAVG_SITE <dbl>,
## #   T_AVG_BASIN <dbl>, T_AVG_SITE <dbl>, T_MAX_BASIN <dbl>,
## #   T_MAXSTD_BASIN <dbl>, T_MAX_SITE <dbl>, T_MIN_BASIN <dbl>,
## #   T_MINSTD_BASIN <dbl>, T_MIN_SITE <dbl>, PET <dbl>,
## #   SNOW_PCT_PRECIP <dbl>, PRECIP_SEAS_IND <dbl>, …

arrange(rbi, desc(RBI))

## # A tibble: 1,144 × 26
##    site_no   RBI RBIrank STANAME DRAIN_SQKM HUC02 LAT_GAGE LNG_GAGE
##      <dbl> <dbl>   <dbl> <chr>        <dbl> <chr>    <dbl>    <dbl>
##  1  9.49e6  1.76    1144 CANADA…      675.  15        32.3   -111. 
##  2  9.51e6  1.75    1143 SKUNK …      170.  15        33.7   -112. 
##  3  8.40e6  1.62    1142 SOUTH …      534   13        32.6   -104. 
##  4  9.49e6  1.58    1141 BRAWLE…     2028.  15        32.1   -111. 
##  5  9.54e6  1.57    1140 SAN SI…     1483.  15        32.0   -112. 
##  6  8.20e6  1.56    1139 Seco C…      435.  12        29.4    -99.3
##  7  1.11e7  1.55    1138 Lytle …      365.  18        34.1   -117. 
##  8  7.02e6  1.51    1137 Fishpo…       24.9 7         38.6    -90.5
##  9  7.23e6  1.50    1136 Palo D…     2909.  11        36.2   -101. 
## 10  6.85e6  1.40    1135 BEAVER…     4358.  10L       40.0   -101. 
## # ℹ 1,134 more rows
## # ℹ 18 more variables: STATE <chr>, CLASS <chr>,
## #   AGGECOREGION <chr>, PPTAVG_BASIN <dbl>, PPTAVG_SITE <dbl>,
## #   T_AVG_BASIN <dbl>, T_AVG_SITE <dbl>, T_MAX_BASIN <dbl>,
## #   T_MAXSTD_BASIN <dbl>, T_MAX_SITE <dbl>, T_MIN_BASIN <dbl>,
## #   T_MINSTD_BASIN <dbl>, T_MIN_SITE <dbl>, PET <dbl>,
## #   SNOW_PCT_PRECIP <dbl>, PRECIP_SEAS_IND <dbl>, …
…
rbi_mt_thin <- select(rbi, STANAME, STATE, RBI)

rbi_thin <- select(rbi, site_no:DRAIN_SQKM)

flow_thin <- select(flow, -surrogate)

19.12 Mutate

Use mutate to add new columns based on additional ones. Common uses are to create a column of data in different units, or to calculate something based on two columns. You can also use it to just update a column, by naming the new column the same as the original one (but be careful because you’ll lose the original one!).

Create a new column in rbi called T_RANGE by subtracting T_MIN_SITE from T_MAX_SITE

mutate(rbi, T_RANGE = T_MAX_SITE - T_MIN_SITE)

## # A tibble: 1,144 × 27
##    site_no    RBI RBIrank STANAME         DRAIN_SQKM HUC02 LAT_GAGE
##      <dbl>  <dbl>   <dbl> <chr>                <dbl> <chr>    <dbl>
##  1 1013500 0.0584      35 Fish River nea…     2253.  1         47.2
##  2 1021480 0.208      300 Old Stream nea…       76.7 1         44.9
##  3 1022500 0.198      286 Narraguagus Ri…      574.  1         44.6
##  4 1029200 0.132      183 Seboeis River …      445.  1         46.1
##  5 1030500 0.114      147 Mattawamkeag R…     3676.  1         45.5
##  6 1031300 0.297      489 Piscataquis Ri…      304.  1         45.3
##  7 1031500 0.320      545 Piscataquis Ri…      769   1         45.2
##  8 1037380 0.318      537 Ducktrap River…       39   1         44.3
##  9 1044550 0.242      360 Spencer Stream…      500.  1         45.3
## 10 1047000 0.344      608 Carrabassett R…      909.  1         44.9
## # ℹ 1,134 more rows
## # ℹ 20 more variables: LNG_GAGE <dbl>, STATE <chr>, CLASS <chr>,
## #   AGGECOREGION <chr>, PPTAVG_BASIN <dbl>, PPTAVG_SITE <dbl>,
## #   T_AVG_BASIN <dbl>, T_AVG_SITE <dbl>, T_MAX_BASIN <dbl>,
## #   T_MAXSTD_BASIN <dbl>, T_MAX_SITE <dbl>, T_MIN_BASIN <dbl>,
## #   T_MINSTD_BASIN <dbl>, T_MIN_SITE <dbl>, PET <dbl>,
## #   SNOW_PCT_PRECIP <dbl>, PRECIP_SEAS_IND <dbl>, …

When downloading data from the USGS through R, you have to enter the gage ID as a character, even though they are all made up of numbers. So to practice doing this, update the site_no column to be a character datatype

mutate(rbi, site_no = as.character(site_no))

## # A tibble: 1,144 × 26
##    site_no    RBI RBIrank STANAME         DRAIN_SQKM HUC02 LAT_GAGE
##    <chr>    <dbl>   <dbl> <chr>                <dbl> <chr>    <dbl>
##  1 1013500 0.0584      35 Fish River nea…     2253.  1         47.2
##  2 1021480 0.208      300 Old Stream nea…       76.7 1         44.9
##  3 1022500 0.198      286 Narraguagus Ri…      574.  1         44.6
##  4 1029200 0.132      183 Seboeis River …      445.  1         46.1
##  5 1030500 0.114      147 Mattawamkeag R…     3676.  1         45.5
##  6 1031300 0.297      489 Piscataquis Ri…      304.  1         45.3
##  7 1031500 0.320      545 Piscataquis Ri…      769   1         45.2
##  8 1037380 0.318      537 Ducktrap River…       39   1         44.3
##  9 1044550 0.242      360 Spencer Stream…      500.  1         45.3
## 10 1047000 0.344      608 Carrabassett R…      909.  1         44.9
## # ℹ 1,134 more rows
## # ℹ 19 more variables: LNG_GAGE <dbl>, STATE <chr>, CLASS <chr>,
## #   AGGECOREGION <chr>, PPTAVG_BASIN <dbl>, PPTAVG_SITE <dbl>,
## #   T_AVG_BASIN <dbl>, T_AVG_SITE <dbl>, T_MAX_BASIN <dbl>,
## #   T_MAXSTD_BASIN <dbl>, T_MAX_SITE <dbl>, T_MIN_BASIN <dbl>,
## #   T_MINSTD_BASIN <dbl>, T_MIN_SITE <dbl>, PET <dbl>,
## #   SNOW_PCT_PRECIP <dbl>, PRECIP_SEAS_IND <dbl>, …
…
